%!PS-Adobe-3.0 EPSF-3.0
%%Creator: MATLAB, The MathWorks, Inc. Version 7.11.0.584 (R2010b). Operating System: Linux 2.6.18-194.26.1.el5 #1 SMP Tue Nov 9 12:46:16 EST 2010 x86_64.
%%Title: /home/ga98xot/tac09/example.eps
%%CreationDate: 05/06/2011  19:14:19
%%DocumentNeededFonts: Helvetica
%%DocumentProcessColors: Cyan Magenta Yellow Black
%%LanguageLevel: 2
%%Pages: 1
%%BoundingBox:    36   193   574   597
%%EndComments

%%BeginProlog
% MathWorks dictionary
/MathWorks 160 dict begin
% definition operators
/bdef {bind def} bind def
/ldef {load def} bind def
/xdef {exch def} bdef
/xstore {exch store} bdef
% operator abbreviations
/c  /clip ldef
/cc /concat ldef
/cp /closepath ldef
/gr /grestore ldef
/gs /gsave ldef
/mt /moveto ldef
/np /newpath ldef
/cm /currentmatrix ldef
/sm /setmatrix ldef
/rm /rmoveto ldef
/rl /rlineto ldef
/s {show newpath} bdef
/sc {setcmykcolor} bdef
/sr /setrgbcolor ldef
/sg /setgray ldef
/w /setlinewidth ldef
/j /setlinejoin ldef
/cap /setlinecap ldef
/rc {rectclip} bdef
/rf {rectfill} bdef
% page state control
/pgsv () def
/bpage {/pgsv save def} bdef
/epage {pgsv restore} bdef
/bplot /gsave ldef
/eplot {stroke grestore} bdef
% orientation switch
/portraitMode 0 def /landscapeMode 1 def /rotateMode 2 def
% coordinate system mappings
/dpi2point 0 def
% font control
/FontSize 0 def
/FMS {/FontSize xstore findfont [FontSize 0 0 FontSize neg 0 0]
  makefont setfont} bdef
/reencode {exch dup where {pop load} {pop StandardEncoding} ifelse
  exch dup 3 1 roll findfont dup length dict begin
  { 1 index /FID ne {def}{pop pop} ifelse } forall
  /Encoding exch def currentdict end definefont pop} bdef
/isroman {findfont /CharStrings get /Agrave known} bdef
/FMSR {3 1 roll 1 index dup isroman {reencode} {pop pop} ifelse
  exch FMS} bdef
/csm {1 dpi2point div -1 dpi2point div scale neg translate
 dup landscapeMode eq {pop -90 rotate}
  {rotateMode eq {90 rotate} if} ifelse} bdef
% line types: solid, dotted, dashed, dotdash
/SO { [] 0 setdash } bdef
/DO { [.5 dpi2point mul 4 dpi2point mul] 0 setdash } bdef
/DA { [6 dpi2point mul] 0 setdash } bdef
/DD { [.5 dpi2point mul 4 dpi2point mul 6 dpi2point mul 4
  dpi2point mul] 0 setdash } bdef
% macros for lines and objects
/L {lineto stroke} bdef
/MP {3 1 roll moveto 1 sub {rlineto} repeat} bdef
/AP {{rlineto} repeat} bdef
/PDlw -1 def
/W {/PDlw currentlinewidth def setlinewidth} def
/PP {closepath eofill} bdef
/DP {closepath stroke} bdef
/MR {4 -2 roll moveto dup  0 exch rlineto exch 0 rlineto
  neg 0 exch rlineto closepath} bdef
/FR {MR stroke} bdef
/PR {MR fill} bdef
/L1i {{currentfile picstr readhexstring pop} image} bdef
/tMatrix matrix def
/MakeOval {newpath tMatrix currentmatrix pop translate scale
0 0 1 0 360 arc tMatrix setmatrix} bdef
/FO {MakeOval stroke} bdef
/PO {MakeOval fill} bdef
/PD {currentlinewidth 2 div 0 360 arc fill
   PDlw -1 eq not {PDlw w /PDlw -1 def} if} def
/FA {newpath tMatrix currentmatrix pop translate scale
  0 0 1 5 -2 roll arc tMatrix setmatrix stroke} bdef
/PA {newpath tMatrix currentmatrix pop	translate 0 0 moveto scale
  0 0 1 5 -2 roll arc closepath tMatrix setmatrix fill} bdef
/FAn {newpath tMatrix currentmatrix pop translate scale
  0 0 1 5 -2 roll arcn tMatrix setmatrix stroke} bdef
/PAn {newpath tMatrix currentmatrix pop translate 0 0 moveto scale
  0 0 1 5 -2 roll arcn closepath tMatrix setmatrix fill} bdef
/vradius 0 def /hradius 0 def /lry 0 def
/lrx 0 def /uly 0 def /ulx 0 def /rad 0 def
/MRR {/vradius xdef /hradius xdef /lry xdef /lrx xdef /uly xdef
  /ulx xdef newpath tMatrix currentmatrix pop ulx hradius add uly
  vradius add translate hradius vradius scale 0 0 1 180 270 arc 
  tMatrix setmatrix lrx hradius sub uly vradius add translate
  hradius vradius scale 0 0 1 270 360 arc tMatrix setmatrix
  lrx hradius sub lry vradius sub translate hradius vradius scale
  0 0 1 0 90 arc tMatrix setmatrix ulx hradius add lry vradius sub
  translate hradius vradius scale 0 0 1 90 180 arc tMatrix setmatrix
  closepath} bdef
/FRR {MRR stroke } bdef
/PRR {MRR fill } bdef
/MlrRR {/lry xdef /lrx xdef /uly xdef /ulx xdef /rad lry uly sub 2 div def
  newpath tMatrix currentmatrix pop ulx rad add uly rad add translate
  rad rad scale 0 0 1 90 270 arc tMatrix setmatrix lrx rad sub lry rad
  sub translate rad rad scale 0 0 1 270 90 arc tMatrix setmatrix
  closepath} bdef
/FlrRR {MlrRR stroke } bdef
/PlrRR {MlrRR fill } bdef
/MtbRR {/lry xdef /lrx xdef /uly xdef /ulx xdef /rad lrx ulx sub 2 div def
  newpath tMatrix currentmatrix pop ulx rad add uly rad add translate
  rad rad scale 0 0 1 180 360 arc tMatrix setmatrix lrx rad sub lry rad
  sub translate rad rad scale 0 0 1 0 180 arc tMatrix setmatrix
  closepath} bdef
/FtbRR {MtbRR stroke } bdef
/PtbRR {MtbRR fill } bdef
/stri 6 array def /dtri 6 array def
/smat 6 array def /dmat 6 array def
/tmat1 6 array def /tmat2 6 array def /dif 3 array def
/asub {/ind2 exch def /ind1 exch def dup dup
  ind1 get exch ind2 get sub exch } bdef
/tri_to_matrix {
  2 0 asub 3 1 asub 4 0 asub 5 1 asub
  dup 0 get exch 1 get 7 -1 roll astore } bdef
/compute_transform {
  dmat dtri tri_to_matrix tmat1 invertmatrix 
  smat stri tri_to_matrix tmat2 concatmatrix } bdef
/ds {stri astore pop} bdef
/dt {dtri astore pop} bdef
/db {2 copy /cols xdef /rows xdef mul dup 3 mul string
  currentfile 
  3 index 0 eq {/ASCIIHexDecode filter}
  {/ASCII85Decode filter 3 index 2 eq {/RunLengthDecode filter} if }
  ifelse exch readstring pop
  dup 0 3 index getinterval /rbmap xdef
  dup 2 index dup getinterval /gbmap xdef
  1 index dup 2 mul exch getinterval /bbmap xdef pop pop}bdef
/it {gs np dtri aload pop moveto lineto lineto cp c
  cols rows 8 compute_transform 
  rbmap gbmap bbmap true 3 colorimage gr}bdef
/il {newpath moveto lineto stroke}bdef
currentdict end def
%%EndProlog

%%BeginSetup
MathWorks begin

0 cap

end
%%EndSetup

%%Page: 1 1
%%BeginPageSetup
%%PageBoundingBox:    36   193   574   597
MathWorks begin
bpage
%%EndPageSetup

%%BeginObject: obj1
bplot

/dpi2point 12 def
portraitMode 0432 7164 csm

    0     0  6467  4845 rc
85 dict begin %Colortable dictionary
/c0 { 0.000000 0.000000 0.000000 sr} bdef
/c1 { 1.000000 1.000000 1.000000 sr} bdef
/c2 { 0.900000 0.000000 0.000000 sr} bdef
/c3 { 0.000000 0.820000 0.000000 sr} bdef
/c4 { 0.000000 0.000000 0.800000 sr} bdef
/c5 { 0.910000 0.820000 0.320000 sr} bdef
/c6 { 1.000000 0.260000 0.820000 sr} bdef
/c7 { 0.000000 0.820000 0.820000 sr} bdef
c0
1 j
1 sg
   0    0 6468 4846 rf
6 w
0 3949 5012 0 0 -3949 841 4312 4 MP
PP
-5012 0 0 3949 5012 0 0 -3949 841 4312 5 MP stroke
4 w
DO
SO
6 w
0 sg
 841 4312 mt 5853 4312 L
 841  363 mt 5853  363 L
 841 4312 mt  841  363 L
5853 4312 mt 5853  363 L
 841 4312 mt 5853 4312 L
 841 4312 mt  841  363 L
 841 4312 mt  841 4261 L
 841  363 mt  841  413 L
%%IncludeResource: font Helvetica
/Helvetica /ISOLatin1Encoding 120 FMSR

 808 4457 mt 
(0) s
1342 4312 mt 1342 4261 L
1342  363 mt 1342  413 L
1276 4457 mt 
(10) s
1843 4312 mt 1843 4261 L
1843  363 mt 1843  413 L
1777 4457 mt 
(20) s
2344 4312 mt 2344 4261 L
2344  363 mt 2344  413 L
2278 4457 mt 
(30) s
2845 4312 mt 2845 4261 L
2845  363 mt 2845  413 L
2779 4457 mt 
(40) s
3347 4312 mt 3347 4261 L
3347  363 mt 3347  413 L
3281 4457 mt 
(50) s
3848 4312 mt 3848 4261 L
3848  363 mt 3848  413 L
3782 4457 mt 
(60) s
4349 4312 mt 4349 4261 L
4349  363 mt 4349  413 L
4283 4457 mt 
(70) s
4850 4312 mt 4850 4261 L
4850  363 mt 4850  413 L
4784 4457 mt 
(80) s
5351 4312 mt 5351 4261 L
5351  363 mt 5351  413 L
5285 4457 mt 
(90) s
5853 4312 mt 5853 4261 L
5853  363 mt 5853  413 L
5753 4457 mt 
(100) s
 841 4312 mt  841 4312 L
 841 4312 mt  841 4312 L
 841 4312 mt  841 4312 L
 841 4312 mt  841 4312 L
 841 4312 mt  841 4312 L
 841 4312 mt  841 4312 L
 841 4312 mt  841 4312 L
 841 4312 mt  841 4312 L
 841 4312 mt  841 4312 L
 841 4312 mt  841 4312 L
 841 4312 mt  841 4312 L
 841 4312 mt  841 4312 L
 841 4312 mt  841 4312 L
 841 4312 mt  841 4312 L
 841 4312 mt  841 4312 L
 841 4312 mt  841 4312 L
 841 4312 mt  841 4312 L
 841 4312 mt  841 4312 L
 841 4312 mt  891 4312 L
5853 4312 mt 5802 4312 L
 538 4356 mt 
(10) s
%%IncludeResource: font Helvetica
/Helvetica /ISOLatin1Encoding 80 FMSR

 671 4282 mt 
(-16) s
 841 4312 mt  841 4312 L
 841 4312 mt  841 4312 L
 841 4312 mt  841 4312 L
 841 4312 mt  841 4312 L
 841 4312 mt  841 4312 L
 841 4312 mt  841 4312 L
 841 4312 mt  841 4312 L
 841 4312 mt  841 4312 L
 841 4312 mt  841 4312 L
 841 4312 mt  841 4312 L
 841 4312 mt  841 4312 L
 841 4312 mt  841 4312 L
 841 4312 mt  841 4312 L
 841 4312 mt  841 4312 L
 841 4312 mt  841 4312 L
 841 4312 mt  841 4312 L
 841 4312 mt  841 4312 L
 841 4312 mt  841 4312 L
 841 3818 mt  891 3818 L
5853 3818 mt 5802 3818 L
%%IncludeResource: font Helvetica
/Helvetica /ISOLatin1Encoding 120 FMSR

 538 3862 mt 
(10) s
%%IncludeResource: font Helvetica
/Helvetica /ISOLatin1Encoding 80 FMSR

 671 3788 mt 
(-14) s
 841 4312 mt  841 4312 L
 841 4312 mt  841 4312 L
 841 4312 mt  841 4312 L
 841 4312 mt  841 4312 L
 841 4312 mt  841 4312 L
 841 4312 mt  841 4312 L
 841 4312 mt  841 4312 L
 841 4312 mt  841 4312 L
 841 4312 mt  841 4312 L
 841 4312 mt  841 4312 L
 841 4312 mt  841 4312 L
 841 4312 mt  841 4312 L
 841 4312 mt  841 4312 L
 841 4312 mt  841 4312 L
 841 4312 mt  841 4312 L
 841 4312 mt  841 4312 L
 841 4312 mt  841 4312 L
 841 4312 mt  841 4312 L
 841 3324 mt  891 3324 L
5853 3324 mt 5802 3324 L
%%IncludeResource: font Helvetica
/Helvetica /ISOLatin1Encoding 120 FMSR

 538 3368 mt 
(10) s
%%IncludeResource: font Helvetica
/Helvetica /ISOLatin1Encoding 80 FMSR

 671 3294 mt 
(-12) s
 841 4312 mt  841 4312 L
 841 4312 mt  841 4312 L
 841 4312 mt  841 4312 L
 841 4312 mt  841 4312 L
 841 4312 mt  841 4312 L
 841 4312 mt  841 4312 L
 841 4312 mt  841 4312 L
 841 4312 mt  841 4312 L
 841 4312 mt  841 4312 L
 841 4312 mt  841 4312 L
 841 4312 mt  841 4312 L
 841 4312 mt  841 4312 L
 841 4312 mt  841 4312 L
 841 4312 mt  841 4312 L
 841 4312 mt  841 4312 L
 841 4312 mt  841 4312 L
 841 4312 mt  841 4312 L
 841 4312 mt  841 4312 L
 841 2831 mt  891 2831 L
5853 2831 mt 5802 2831 L
%%IncludeResource: font Helvetica
/Helvetica /ISOLatin1Encoding 120 FMSR

 538 2875 mt 
(10) s
%%IncludeResource: font Helvetica
/Helvetica /ISOLatin1Encoding 80 FMSR

 671 2801 mt 
(-10) s
 841 4312 mt  841 4312 L
 841 4312 mt  841 4312 L
 841 4312 mt  841 4312 L
 841 4312 mt  841 4312 L
 841 4312 mt  841 4312 L
 841 4312 mt  841 4312 L
 841 4312 mt  841 4312 L
 841 4312 mt  841 4312 L
 841 4312 mt  841 4312 L
 841 4312 mt  841 4312 L
 841 4312 mt  841 4312 L
 841 4312 mt  841 4312 L
 841 4312 mt  841 4312 L
 841 4312 mt  841 4312 L
 841 4312 mt  841 4312 L
 841 4312 mt  841 4312 L
 841 4312 mt  841 4312 L
 841 4312 mt  841 4312 L
 841 2337 mt  891 2337 L
5853 2337 mt 5802 2337 L
%%IncludeResource: font Helvetica
/Helvetica /ISOLatin1Encoding 120 FMSR

 538 2381 mt 
(10) s
%%IncludeResource: font Helvetica
/Helvetica /ISOLatin1Encoding 80 FMSR

 671 2307 mt 
(-8) s
 841 4312 mt  841 4312 L
 841 4312 mt  841 4312 L
 841 4312 mt  841 4312 L
 841 4312 mt  841 4312 L
 841 4312 mt  841 4312 L
 841 4312 mt  841 4312 L
 841 4312 mt  841 4312 L
 841 4312 mt  841 4312 L
 841 4312 mt  841 4312 L
 841 4312 mt  841 4312 L
 841 4312 mt  841 4312 L
 841 4312 mt  841 4312 L
 841 4312 mt  841 4312 L
 841 4312 mt  841 4312 L
 841 4312 mt  841 4312 L
 841 4312 mt  841 4312 L
 841 4312 mt  841 4312 L
 841 4312 mt  841 4312 L
 841 1843 mt  891 1843 L
5853 1843 mt 5802 1843 L
%%IncludeResource: font Helvetica
/Helvetica /ISOLatin1Encoding 120 FMSR

 538 1887 mt 
(10) s
%%IncludeResource: font Helvetica
/Helvetica /ISOLatin1Encoding 80 FMSR

 671 1813 mt 
(-6) s
 841 4312 mt  841 4312 L
 841 4312 mt  841 4312 L
 841 4312 mt  841 4312 L
 841 4312 mt  841 4312 L
 841 4312 mt  841 4312 L
 841 4312 mt  841 4312 L
 841 4312 mt  841 4312 L
 841 4312 mt  841 4312 L
 841 4312 mt  841 4312 L
 841 4312 mt  841 4312 L
 841 4312 mt  841 4312 L
 841 4312 mt  841 4312 L
 841 4312 mt  841 4312 L
 841 4312 mt  841 4312 L
 841 4312 mt  841 4312 L
 841 4312 mt  841 4312 L
 841 4312 mt  841 4312 L
 841 4312 mt  841 4312 L
 841 1350 mt  891 1350 L
5853 1350 mt 5802 1350 L
%%IncludeResource: font Helvetica
/Helvetica /ISOLatin1Encoding 120 FMSR

 538 1394 mt 
(10) s
%%IncludeResource: font Helvetica
/Helvetica /ISOLatin1Encoding 80 FMSR

 671 1320 mt 
(-4) s
 841 4312 mt  841 4312 L
 841 4312 mt  841 4312 L
 841 4312 mt  841 4312 L
 841 4312 mt  841 4312 L
 841 4312 mt  841 4312 L
 841 4312 mt  841 4312 L
 841 4312 mt  841 4312 L
 841 4312 mt  841 4312 L
 841 4312 mt  841 4312 L
 841 4312 mt  841 4312 L
 841 4312 mt  841 4312 L
 841 4312 mt  841 4312 L
 841 4312 mt  841 4312 L
 841 4312 mt  841 4312 L
 841 4312 mt  841 4312 L
 841 4312 mt  841 4312 L
 841 4312 mt  841 4312 L
 841 4312 mt  841 4312 L
 841  856 mt  891  856 L
5853  856 mt 5802  856 L
%%IncludeResource: font Helvetica
/Helvetica /ISOLatin1Encoding 120 FMSR

 538  900 mt 
(10) s
%%IncludeResource: font Helvetica
/Helvetica /ISOLatin1Encoding 80 FMSR

 671  826 mt 
(-2) s
 841 4312 mt  841 4312 L
 841 4312 mt  841 4312 L
 841 4312 mt  841 4312 L
 841 4312 mt  841 4312 L
 841 4312 mt  841 4312 L
 841 4312 mt  841 4312 L
 841 4312 mt  841 4312 L
 841 4312 mt  841 4312 L
 841 4312 mt  841 4312 L
 841 4312 mt  841 4312 L
 841 4312 mt  841 4312 L
 841 4312 mt  841 4312 L
 841 4312 mt  841 4312 L
 841 4312 mt  841 4312 L
 841 4312 mt  841 4312 L
 841 4312 mt  841 4312 L
 841 4312 mt  841 4312 L
 841 4312 mt  841 4312 L
 841  363 mt  891  363 L
5853  363 mt 5802  363 L
%%IncludeResource: font Helvetica
/Helvetica /ISOLatin1Encoding 120 FMSR

 538  407 mt 
(10) s
%%IncludeResource: font Helvetica
/Helvetica /ISOLatin1Encoding 80 FMSR

 671  333 mt 
(0) s
 841 4312 mt  841 4312 L
 841 4312 mt  841 4312 L
 841 4312 mt  841 4312 L
 841 4312 mt  841 4312 L
 841 4312 mt  841 4312 L
 841 4312 mt  841 4312 L
 841 4312 mt  841 4312 L
 841 4312 mt  841 4312 L
 841 4312 mt  841 4312 L
 841 4312 mt  841 4312 L
 841 4312 mt  841 4312 L
 841 4312 mt  841 4312 L
 841 4312 mt  841 4312 L
 841 4312 mt  841 4312 L
 841 4312 mt  841 4312 L
 841 4312 mt  841 4312 L
 841 4312 mt  841 4312 L
 841 4312 mt  841 4312 L
 841 4312 mt 5853 4312 L
 841  363 mt 5853  363 L
 841 4312 mt  841  363 L
5853 4312 mt 5853  363 L
gs 841 362 5013 3951 rc
/c8 { 0.000000 0.000000 1.000000 sr} bdef
c8
51 0 50 0 50 0 50 0 50 0 50 0 50 0 50 0 
51 0 50 0 50 0 50 0 50 0 50 0 50 0 50 0 
51 0 50 0 50 0 50 0 50 0 50 0 50 0 50 0 
50 0 51 0 50 0 50 0 50 0 50 0 50 0 50 0 
50 0 51 0 50 0 50 0 50 0 50 0 50 0 50 0 
50 0 51 0 50 0 50 0 50 0 50 0 50 0 50 0 
50 0 50 0 51 0 50 0 50 0 50 0 50 0 50 0 
50 0 50 0 51 0 50 0 50 0 50 0 50 0 50 0 
50 0 50 0 51 0 50 0 50 0 50 0 50 0 50 0 
50 0 50 0 50 0 51 0 50 0 50 0 50 0 50 0 
50 0 50 0 50 0 51 0 50 0 50 0 50 0 50 0 
50 0 50 0 50 0 51 0 50 0 50 0 50 0 50 0 
50 0 50 0 50 0 50 0 841 1375 101 MP stroke
/c9 { 0.000000 0.500000 0.000000 sr} bdef
c9
51 0 50 0 50 0 50 0 50 0 50 0 50 0 50 0 
51 0 50 0 50 0 50 0 50 0 50 0 50 0 50 0 
51 0 50 0 50 0 50 0 50 0 50 0 50 0 50 0 
50 0 51 0 50 0 50 0 50 0 50 0 50 0 50 0 
50 0 51 0 50 0 50 0 50 0 50 0 50 0 50 0 
50 0 51 0 50 0 50 0 50 0 50 0 50 0 50 0 
50 0 50 0 51 0 50 0 50 0 50 0 50 0 50 0 
50 0 50 0 51 0 50 0 50 0 50 0 50 0 50 0 
50 0 50 0 51 0 50 0 50 0 50 0 50 0 50 0 
50 0 50 0 50 0 51 0 50 0 50 0 50 0 50 0 
50 0 50 0 50 0 51 0 50 0 50 0 50 0 50 0 
50 0 50 0 50 0 51 0 50 0 50 0 50 0 50 0 
50 0 50 0 50 0 50 0 841 2913 101 MP stroke
/c10 { 1.000000 0.000000 0.000000 sr} bdef
c10
50 31 51 -149 50 75 50 -75 50 75 50 74 50 -74 50 -75 
50 0 51 75 50 -75 50 149 50 -149 50 173 50 110 50 53 
50 108 50 229 51 62 50 79 50 247 50 88 50 38 50 260 
50 112 50 10 51 260 50 137 50 0 50 242 50 161 50 7 
50 207 50 186 51 23 50 162 50 210 50 46 50 111 50 225 
50 60 50 53 891 493 43 MP stroke
gr

c10
gs 818 420 5109 3806 rc
  36   36  891  493 FO
  36   36  941  546 FO
  36   36  991  606 FO
  36   36 1041  831 FO
  36   36 1091  942 FO
  36   36 1141  988 FO
  36   36 1191 1198 FO
  36   36 1241 1360 FO
  36   36 1292 1383 FO
  36   36 1342 1569 FO
  36   36 1392 1776 FO
  36   36 1442 1783 FO
  36   36 1492 1944 FO
  36   36 1542 2186 FO
  36   36 1592 2186 FO
  36   36 1642 2323 FO
  36   36 1693 2583 FO
  36   36 1743 2593 FO
  36   36 1793 2705 FO
  36   36 1843 2965 FO
  36   36 1893 3003 FO
  36   36 1943 3091 FO
  36   36 1993 3338 FO
  36   36 2043 3417 FO
  36   36 2094 3479 FO
  36   36 2144 3708 FO
  36   36 2194 3816 FO
  36   36 2244 3869 FO
  36   36 2294 3979 FO
  36   36 2344 4152 FO
  36   36 2394 4003 FO
  36   36 2444 4152 FO
  36   36 2494 4077 FO
  36   36 2545 4152 FO
  36   36 2595 4152 FO
  36   36 2645 4077 FO
  36   36 2695 4003 FO
  36   36 2745 4077 FO
  36   36 2795 4152 FO
  36   36 2845 4077 FO
  36   36 2895 4152 FO
  36   36 2946 4003 FO
  36   36 2996 4034 FO
gr

gs 841 362 5013 3951 rc
51 75 50 -75 50 118 50 -43 50 0 50 -75 50 75 50 -75 
51 75 50 -75 50 75 50 -75 50 75 50 -75 50 118 50 0 
51 -43 50 0 50 0 50 0 50 0 50 43 50 -43 50 0 
50 0 51 -75 50 149 50 -149 50 0 50 118 50 -43 50 0 
50 43 51 -43 50 0 50 -75 50 118 50 31 50 -31 50 -118 
50 118 51 -43 50 0 50 43 50 0 50 -43 50 -75 50 0 
50 0 50 75 51 43 50 0 50 -118 50 118 3146 4034 55 MP stroke
gr

gs 818 420 5109 3806 rc
  36   36 3146 4034 FO
  36   36 3196 4152 FO
  36   36 3246 4034 FO
  36   36 3296 4034 FO
  36   36 3347 4077 FO
  36   36 3397 4152 FO
  36   36 3447 4152 FO
  36   36 3497 4152 FO
  36   36 3547 4077 FO
  36   36 3597 4034 FO
  36   36 3647 4034 FO
  36   36 3697 4077 FO
  36   36 3747 4077 FO
  36   36 3798 4034 FO
  36   36 3848 4152 FO
  36   36 3898 4034 FO
  36   36 3948 4003 FO
  36   36 3998 4034 FO
  36   36 4048 4152 FO
  36   36 4098 4077 FO
  36   36 4148 4077 FO
  36   36 4199 4034 FO
  36   36 4249 4077 FO
  36   36 4299 4077 FO
  36   36 4349 4034 FO
  36   36 4399 4152 FO
  36   36 4449 4152 FO
  36   36 4499 4003 FO
  36   36 4549 4152 FO
  36   36 4600 4077 FO
  36   36 4650 4077 FO
  36   36 4700 4077 FO
  36   36 4750 4034 FO
  36   36 4800 4077 FO
  36   36 4850 4077 FO
  36   36 4900 4077 FO
  36   36 4950 4077 FO
  36   36 5000 4077 FO
  36   36 5051 4034 FO
  36   36 5101 4034 FO
  36   36 5151 4152 FO
  36   36 5201 4077 FO
  36   36 5251 4152 FO
  36   36 5301 4077 FO
  36   36 5351 4152 FO
  36   36 5401 4077 FO
  36   36 5452 4152 FO
  36   36 5502 4077 FO
  36   36 5552 4152 FO
  36   36 5602 4077 FO
  36   36 5652 4077 FO
  36   36 5702 4034 FO
  36   36 5752 4152 FO
  36   36 5802 4077 FO
  36   36 5853 4152 FO
gr

gs 841 362 5013 3951 rc
DA
/c11 { 0.000000 0.750000 0.750000 sr} bdef
c11
51 0 50 0 50 0 50 0 50 0 50 0 50 0 50 0 
51 0 50 0 50 0 50 0 50 0 50 0 50 0 50 0 
51 0 50 0 50 0 50 0 50 0 50 0 50 0 50 0 
50 0 51 0 50 0 50 0 50 0 50 0 50 0 50 0 
50 0 51 0 50 0 50 0 50 0 50 0 50 0 50 0 
50 0 51 0 50 0 50 0 50 0 50 0 50 0 50 0 
50 0 50 0 51 0 50 0 50 0 50 0 50 0 50 0 
50 0 50 0 51 0 50 0 50 0 50 0 50 0 50 0 
50 0 50 0 51 0 50 0 50 0 50 0 50 0 50 0 
50 0 50 0 50 0 51 0 50 0 50 0 50 0 50 0 
50 0 50 0 50 0 51 0 50 0 50 0 50 0 50 0 
50 0 50 0 50 0 51 0 50 0 50 0 50 0 50 0 
50 0 50 0 50 0 50 0 841 4053 101 MP stroke
gr

c11
DA
0 sg
%%IncludeResource: font Helvetica
/Helvetica /ISOLatin1Encoding 120 FMSR

3253 4600 mt 
(N []) s
 456 3510 mt  -90 rotate
(|exact infimum - computed approximation| []) s
90 rotate
 824 4355 mt 
( ) s
5837  404 mt 
( ) s
SO
1 sg
0 680 2428 0 0 -680 3365 1102 4 MP
PP
-2428 0 0 680 2428 0 0 -680 3365 1102 5 MP stroke
4 w
DO
SO
6 w
0 sg
3365 1102 mt 5793 1102 L
3365  422 mt 5793  422 L
3365 1102 mt 3365  422 L
5793 1102 mt 5793  422 L
3365 1102 mt 5793 1102 L
3365 1102 mt 3365  422 L
3365 1102 mt 5793 1102 L
3365  422 mt 5793  422 L
3365 1102 mt 3365  422 L
5793 1102 mt 5793  422 L
3760  556 mt 
(MATLAB \(hinfsyn,LMI method\)) s
gs 3365 422 2429 681 rc
c8
304 0 3425 514 2 MP stroke
gr

c8
0 sg
3760  706 mt 
(MATLAB \(hinffi\)) s
gs 3365 422 2429 681 rc
c9
304 0 3425 663 2 MP stroke
gr

c9
0 sg
3760  830 mt 
(1/sigma) s
%%IncludeResource: font Helvetica
/Helvetica /ISOLatin1Encoding 96 FMSR

4180  890 mt 
(min) s
%%IncludeResource: font Helvetica
/Helvetica /ISOLatin1Encoding 120 FMSR

4334  830 mt 
(\(Gamma) s
%%IncludeResource: font Helvetica
/Helvetica /ISOLatin1Encoding 96 FMSR

4800  890 mt 
(N) s
%%IncludeResource: font Helvetica
/Helvetica /ISOLatin1Encoding 120 FMSR

4869  830 mt 
(\)) s
gs 3365 422 2429 681 rc
c10
304 0 3425 836 2 MP stroke
gs 3504 763 147 147 rc
  36   36 3577  836 FO
gr

gr

c10
0 sg
3760 1053 mt 
(Asymptotic error bound in Remark 2) s
gs 3365 422 2429 681 rc
DA
c11
304 0 3425 1009 2 MP stroke
SO
gr

c11

end %%Color Dict

eplot
%%EndObject

epage
end

showpage

%%Trailer
%%EOF
